<svg version="1.1" id="Layer_1" xmlns="http://www.w3.org/2000/svg" xmlns:xlink="http://www.w3.org/1999/xlink" x="0px" y="0px"
	 width="240px" height="240px" viewBox="-214 817 240 240" style="enable-background:new -214 817 240 240;" xml:space="preserve">
  <style type="text/css">
    .st0{fill:none;stroke:#0054A4;stroke-width:4;stroke-linecap:round;stroke-linejoin:round;}
    .st1{fill:none;stroke:#0054A4;stroke-width:4;stroke-linejoin:round;}
    .st2{fill:none;stroke:#D4146E;stroke-width:4;stroke-linejoin:round;}
  </style>
  <path class="st0" d="M-181.5,1100h175">
    <animate attributeName="d" dur=".2s" begin="play-forward.begin+0s" keyTimes="0; .8; 1" fill="freeze"
      values="M-181.5,1100h175; M-181.5,990h175; M-181.5,998h175"/>
  </path>
  <path class="st1" d="M-130.61,1100c0,0,0-113.82,0-127.42c0-13.61,17.38-14.23,17.38,0c0,14.22,0,127.42,0,127.42">
    <animate attributeName="d" id="play-forward" dur=".4s" begin="indefinite" keyTimes="0; .5; .6; .8; 1" fill="freeze"
      values="M-130.61,1100 c0,0,0,0,0-10 c0-13.61,17.38-14.23,17.38,0 c0,14.22,0,10,0,10; M-130.61,982 c0,0,0,0,0-10 c0-13.61,17.38-14.23,17.38,0 c0,14.22,0,0,0,10; M-130.61,992 c0,0,0-113.82,0-127.42 c0-13.61,17.38-14.23,17.38,0 c0,14.22,0,0,0,127.42; M-130.61,992 c0,0,0,0,0-50 c0-13.61,17.38-14.23,17.38,0 c0,14.22,0,0,0,50; M-130.61,992 c0,0,0-113.82,0-127.42 c0-13.61,17.38-14.23,17.38,0 c0,14.22,0,0,0,127.42"/>
  </path>
  <path class="st2" d="M-78.49,1100 c0,0,0,0,0-39.59 c0-13.61,17.38-14.23,17.38,0 c0,14.22,0,0,0,10">
    <animate attributeName="d" dur=".4s" begin="play-forward.begin+0s" keyTimes="0; .5; .6; .8; 1" fill="freeze"
      values="M-78.49,1100 c0,0,0,0,0-10 c0-13.61,17.38-14.23,17.38,0 c0,14.22,0,0,0,10; M-78.49,990 c0,0,0,0,0-10 c0-13.61,17.38-14.23,17.38,0 c0,14.22,0,0,0,10; M-78.49,992 c0,0,0,0,0-100 c0-13.61,17.38-14.23,17.38,0 c0,14.22,0,0,0,100; M-78.49,982 c0,0,0,0,0-20 c0-13.61,17.38-14.23,17.38,0 c0,14.22,0,0,0,20; M-78.49,992 c0,0,0,0,0-39.59 c0-13.61,17.38-14.23,17.38,0 c0,14.22,0,0,0,39.59"/>
  </path>
</svg>
